4 Jak dostat data do R | Od Excelu k R
…
## New names:
## * `` -> ...7

## Warning: One or more parsing issues, see `problems()` for details

animals

## # A tibble: 514 x 4
##    nazev_cz                   trida_cz    cena k_prohlidce
##    <chr>                      <chr>      <dbl> <lgl>      
##  1 Šváb syčivý                Bezobratlí  1000 TRUE       
##  2 Pakobylka okřídlená        Bezobratlí  1000 TRUE       
##  3 Tayra                      Savci       5000 TRUE       
##  4 Kajmanka supí              Plazi       2000 TRUE       
##  5 Želva žlutočelá            Plazi       1000 TRUE       
##  6 Želva stepní (= čtyřprstá) Plazi       1500 TRUE       
##  7 Želva sloní                Plazi       5000 TRUE       
##  8 Želva obrovská             Plazi       5000 TRUE       
##  9 Želva skalní               Plazi       1000 TRUE       
## 10 Leguán kubánský            Plazi       3000 TRUE       
## # ... with 504 more rows
…
## The following object is masked from 'package:readr':
## 
##     guess_encoding

hlavni_mesta <- html_table(
  read_html(
    "https://cs.wikipedia.org/wiki/Seznam_hlavn%C3%ADch_m%C4%9Bst_st%C3%A1t%C5%AF_sv%C4%9Bta"
  )
)[[1]]

hlavni_mesta

## # A tibble: 197 x 4
##    Stát                                `Hlavní město`   Světadíl        Obyvatel
##    <chr>                               <chr>            <chr>           <chr>   
##  1 Afghánistán Afghánistán             Kábul            Asie            3 042 4~
##  2 Albánie Albánie                     Tirana           Evropa          600 339 
##  3 Alžírsko Alžírsko                   Alžír            Afrika          2 072 9~
##  4 Andorra Andorra                     Andorra la Vella Evropa          22 884  
##  5 Angola Angola                       Luanda           Afrika          2 776 1~
##  6 Antigua a Barbuda Antigua a Barbuda Saint John's     Amerika         25 150  
##  7 Argentina Argentina                 Buenos Aires     Amerika         2 891 0~
##  8 Arménie Arménie                     Jerevan          Asie            1 093 4~
##  9 Austrálie Austrálie                 Canberra         Austrálie a Oc~ 332 798 
## 10 Ázerbájdžán Ázerbájdžán             Baku             Asie            2 100 0~
## # ... with 187 more rows

Asi jste si všimli, že získaná data nejsou perfektní. Ve sloupci stát je název každá země dvakrát. Je to proto, že ve zdrojové tabulce jsou před názvem země vlajky, které název obsahují v atributu alt. Navíc je počet obyvatel typu text, protože si funkce neporadí s českými mezerami mezi řády.

Obojí jde snadno napravit. Ukážu vám jak, ale už to zatím nebudu podrobně vysvětlovat. To si necháme na jindy.

mutate(
  hlavni_mesta,
  Stát = str_sub(Stát, 1, nchar(Stát) / 2),
  Obyvatel = as.double(str_remove_all(Obyvatel, "\\s"))
)

## # A tibble: 197 x 4
##    Stát              `Hlavní město`   Světadíl            Obyvatel
##    <chr>             <chr>            <chr>                  <dbl>
##  1 Afghánistán       Kábul            Asie                 3042430
##  2 Albánie           Tirana           Evropa                600339
##  3 Alžírsko          Alžír            Afrika               2072993
##  4 Andorra           Andorra la Vella Evropa                 22884
##  5 Angola            Luanda           Afrika               2776125
##  6 Antigua a Barbuda Saint John's     Amerika                25150
##  7 Argentina         Buenos Aires     Amerika              2891082
##  8 Arménie           Jerevan          Asie                 1093499
##  9 Austrálie         Canberra         Austrálie a Oceánie   332798
## 10 Ázerbájdžán       Baku             Asie                 2100000
## # ... with 187 more rows
…
